{
  "iisSettings": {
    "windowsAuthentication": false,
    "anonymousAuthentication": true,
    "iisExpress": {
      "applicationUrl": "http://localhost:3257/",
      "sslPort": 0
    }
  },
  "profiles": {
    "IIS Express": {
      "commandName": "IISExpress",
      "launchBrowser": true,
      "launchUrl": "api/Pais",
      "environmentVariables": {
        "Llave_super_secreta": "aaaaaaaaedsfdfdfdfdfdfdDFDFDFDFDFDSASADASDSFDSADFSADFSADFDSAFDSAFSAFDSAFDSAFDSAFDSA",
        "ASPNETCORE_ENVIRONMENT": "Development"
      }
    },
    "WebAppPaises": {
      "commandName": "Project",
      "launchBrowser": true,
      "launchUrl": "api/values",
      "environmentVariables": {
        "ASPNETCORE_ENVIRONMENT": "Development"
      },
      "applicationUrl": "http://localhost:3258/"
    }
  }
}